<svg xmlns="http://www.w3.org/2000/svg" width="36" height="35" viewBox="0 0 36 35">
    <path fill="#FFF" fill-rule="nonzero" d="M32 23.992V32a1 1 0 0 1-2 0v-8.008H6V32a1 1 0 0 1-2 0v-8.008h-.98a1 1 0 0 1 0-2H33a1 1 0 1 1 0 2h-1zM15 2h15a2 2 0 0 1 2 2v10a2 2 0 0 1-2 2H15a2 2 0 0 1-2-2V4a2 2 0 0 1 2-2zm0 2v10h15V4H15zM6 2h2a2 2 0 0 1 2 2v13a2 2 0 0 1-2 2H6a2 2 0 0 1-2-2V4a2 2 0 0 1 2-2zm0 2v13h2V4H6zm14 16a1 1 0 0 1 0-2h5a1 1 0 0 1 0 2h-5zM9.9 29c-.497 0-.9-.448-.9-1s.403-1 .9-1h16.2c.497 0 .9.448.9 1s-.403 1-.9 1H9.9z"/>
</svg>
