{
  "CacheSourceKey": "9hv1aa",
  "CachePdfKey": "9hv1aa/9hv1aa-ls9sqh.pdf",
  "CacheXpzKey": "9hv1aa/9hv1aa-1hzxd6w.xpz",
  "CacheCopyKey": null,
  "Document": "D:\\AVANTIS\\Projects\\GitProjects\\LiveProject\\hrplus_diy_workingsolution_live\\ComplianceManagement.Portal\\TempFiles\\270520\\365130758.xlsx",
  "DocumentHandlerType": null,
  "InputOptions": {
    "$type": "GleamTech.DocumentUltimate.SpreadsheetInputOptions, GleamTech.DocumentUltimate",
    "OutputSheetRange": "visible",
    "RenderColumnsFitToPages": 1,
    "RenderRowsFitToPages": 0,
    "RenderHeadings": false,
    "RenderGridlines": false,
    "RenderTitleColumns": null,
    "RenderTitleRows": null,
    "RenderArea": null,
    "RenderBlackAndWhite": false,
    "RenderCenterHorizontally": false,
    "RenderCenterVertically": false,
    "Format": "Xlsx",
    "Password": null
  },
  "PdfOutputOptions": {
    "Watermarks": [],
    "FastWebViewEnabled": false,
    "Format": "Pdf"
  },
  "XpzOutputOptions": {
    "Password": "9hv1aa",
    "HighQualityEnabled": false,
    "Format": "Xpz"
  },
  "DownloadFileName": "365130758.xlsx",
  "DownloadEnabled": true,
  "DownloadAsPdfEnabled": false
}