<svg xmlns="http://www.w3.org/2000/svg" width="41" height="44" viewBox="0 0 41 44">
    <g fill="none" fill-rule="evenodd">
        <circle cx="20" cy="20" r="20" fill="#E4F6FF"/>
        <circle cx="12" cy="10" r="1" fill="#0090D6"/>
        <circle cx="12" cy="30" r="1" fill="#0090D6"/>
        <g transform="translate(5 6)">
            <circle cx="11" cy="8" r="1" fill="#008BCF"/>
            <circle cx="11" cy="15" r="1" fill="#008BCF"/>
            <circle cx="11" cy="29" r="1" fill="#008BCF"/>
            <path fill="#008BCF" fill-rule="nonzero" d="M33 0c1.105 0 2 .895 2 2v34c0 1.105-.895 2-2 2H8c-1.105 0-2-.895-2-2V24h2v12h25V2H8v2H6V2c0-1.105.895-2 2-2h25z"/>
            <path stroke="#008BCF" stroke-linecap="round" stroke-width="2" d="M19.7 8L26.219 8M19.7 15L24.158 15M15.514 22L19.975 22M15.054 29L30 29"/>
            <circle cx="34" cy="14" r="1" fill="#008BCF"/>
            <circle cx="34" cy="35" r="1" fill="#008BCF"/>
            <circle cx="7.7" cy="14" r="7" fill="#FFF" stroke="#0090D6" stroke-width="2"/>
        </g>
        <path stroke="#0090D6" stroke-linecap="round" stroke-width="2" d="M12.7 16.644v2.822c0 .334.166.645.444.831L15.688 22h0"/>
    </g>
</svg>
