{
  "CacheSourceKey": "1ha0r8p",
  "CachePdfKey": "1ha0r8p/1ha0r8p-ls9sqh.pdf",
  "CacheXpzKey": "1ha0r8p/1ha0r8p-1v32jqg.xpz",
  "CacheCopyKey": null,
  "Document": "D:\\AVANTIS\\Projects\\GitProjects\\LiveProject\\hrplus_diy_workingsolution_live\\ComplianceManagement.Portal\\TempFiles\\280520\\365131340.xlsx",
  "DocumentHandlerType": null,
  "InputOptions": {
    "$type": "GleamTech.DocumentUltimate.SpreadsheetInputOptions, GleamTech.DocumentUltimate",
    "OutputSheetRange": "visible",
    "RenderColumnsFitToPages": 1,
    "RenderRowsFitToPages": 0,
    "RenderHeadings": false,
    "RenderGridlines": false,
    "RenderTitleColumns": null,
    "RenderTitleRows": null,
    "RenderArea": null,
    "RenderBlackAndWhite": false,
    "RenderCenterHorizontally": false,
    "RenderCenterVertically": false,
    "Format": "Xlsx",
    "Password": null
  },
  "PdfOutputOptions": {
    "Watermarks": [],
    "FastWebViewEnabled": false,
    "Format": "Pdf"
  },
  "XpzOutputOptions": {
    "Password": "1ha0r8p",
    "HighQualityEnabled": false,
    "Format": "Xpz"
  },
  "DownloadFileName": "365131340.xlsx",
  "DownloadEnabled": true,
  "DownloadAsPdfEnabled": false
}