{
  "CacheSourceKey": "1b51q8x",
  "CachePdfKey": "1b51q8x/1b51q8x-40n0n6.pdf",
  "CacheXpzKey": "1b51q8x/1b51q8x-7o6env.xpz",
  "CacheCopyKey": null,
  "Document": "D:\\AVANTIS\\Projects\\GitProjects\\LiveProject\\hrplus_diy_workingsolution_live\\ComplianceManagement.Portal\\TempFiles\\290620\\385195729.txt",
  "DocumentHandlerType": null,
  "InputOptions": {
    "$type": "GleamTech.DocumentUltimate.WordProcessingInputOptions, GleamTech.DocumentUltimate",
    "FieldFileName": null,
    "Format": "Txt",
    "Password": null
  },
  "PdfOutputOptions": {
    "Watermarks": [],
    "FastWebViewEnabled": false,
    "Format": "Pdf"
  },
  "XpzOutputOptions": {
    "Password": "1b51q8x",
    "HighQualityEnabled": false,
    "Format": "Xpz"
  },
  "DownloadFileName": "385195729.txt",
  "DownloadEnabled": true,
  "DownloadAsPdfEnabled": false
}